DCmotor.c:7:6:motor1MoveRight	16	static
DCmotor.c:14:6:motor1MoveLeft	16	static
DCmotor.c:20:6:motor2MoveRight	16	static
DCmotor.c:26:6:motor2MoveLeft	16	static
DCmotor.c:32:6:motor3MoveRight	16	static
DCmotor.c:38:6:motor3MoveLeft	16	static
DCmotor.c:44:6:moveToZeroPos	8	static
DCmotor.c:56:6:move1ToZeroPos	8	static
DCmotor.c:68:6:move2ToZeroPos	8	static
DCmotor.c:79:6:move3ToZeroPos	8	static
DCmotor.c:90:7:pidMotor1	40	static
DCmotor.c:114:7:pidMotor2	40	static
DCmotor.c:138:7:pidMotor3	40	static
