<?xml version="1.0" encoding="UTF-8"?>
<session version="1.0">
<refactoring comment="Delete resource &apos;3ARA_v2&apos;" deleteContents="true" description="Delete resource &apos;3ARA_v2&apos;" element1="/3ARA_v2" flags="7" id="org.eclipse.ltk.core.refactoring.delete.resources" resources="1" stamp="1597858434260"/>
</session>